[
  { "id": 1, "color_name": "caucasian" },
  { "id": 2, "color_name": "black" },
  { "id": 3, "color_name": "asian" },
  { "id": 4, "color_name": "hispanic" },
  { "id": 5, "color_name": "blonde" },
  { "id": 6, "color_name": "brown" },
  { "id": 7, "color_name": "red" },
  { "id": 8, "color_name": "blue" },
  { "id": 9, "color_name": "green" },
  { "id": 10, "color_name": "hazel" },
  { "id": 11, "color_name": "grey" },
  { "id": 12, "color_name": "amber" },
  { "id": 13, "color_name": "gray" },
  { "id": 14, "color_name": "yellow" },
  { "id": 15, "color_name": "golden" },
  { "id": 16, "color_name": "tan" },
  { "id": 17, "color_name": "white" },
  { "id": 18, "color_name": "none" },
  { "id": 19, "color_name": "orange" },
  { "id": 20, "color_name": "magenta" },
  { "id": 21, "color_name": "pale" },
  { "id": 22, "color_name": "pink" },
  { "id": 23, "color_name": "purple" },
  { "id": 24, "color_name": "pale pink" },
  { "id": 25, "color_name": "blond" },
  { "id": 26, "color_name": "dark" },
  { "id": 27, "color_name": "indigo" },
  { "id": 28, "color_name": "peach" },
  { "id": 29, "color_name": "silver" },
  { "id": 30, "color_name": "fair" },
  { "id": 31, "color_name": "gold" },
  { "id": 32, "color_name": "light" },
  { "id": 33, "color_name": "auburn" },
  { "id": 34, "color_name": "blue-gray" },
  { "id": 35, "color_name": "unknown" },
  { "id": 36, "color_name": "green-tan" },
  { "id": 37, "color_name": "metal" },
  { "id": 38, "color_name": "brown mottle" },
  { "id": 39, "color_name": "mottled green" }
]
