[
  {
    "id": 1,
    "name": "Tatooine",
    "rotation_period": 23,
    "orbital_period": 304,
    "diameter": 10465,
    "gravity": "1 standard",
    "surface_water": 1,
    "population": 200000,
    "image_path": "/images/planets/Tatooine.jpg"
  },
  {
    "id": 2,
    "name": "Alderaan",
    "rotation_period": 24,
    "orbital_period": 364,
    "diameter": 12500,
    "gravity": "1 standard",
    "surface_water": 40,
    "population": 2000000000,
    "image_path": "/images/planets/Alderaan.png"
  },
  {
    "id": 3,
    "name": "Yavin IV",
    "rotation_period": 24,
    "orbital_period": 4818,
    "diameter": 10200,
    "gravity": "1 standard",
    "surface_water": 8,
    "population": 1000,
    "image_path": "/images/planets/Yavin IV.jpg"
  },
  {
    "id": 4,
    "name": "Hoth",
    "rotation_period": 23,
    "orbital_period": 549,
    "diameter": 7200,
    "gravity": "1.1 standard",
    "surface_water": 100,
    "population": null,
    "image_path": "/images/planets/Hoth.jpg"
  },
  {
    "id": 5,
    "name": "Dagobah",
    "rotation_period": 23,
    "orbital_period": 341,
    "diameter": 8900,
    "gravity": null,
    "surface_water": 8,
    "population": null,
    "image_path": "/images/planets/Dagobah.png"
  },
  {
    "id": 6,
    "name": "Bespin",
    "rotation_period": 12,
    "orbital_period": 5110,
    "diameter": 118000,
    "gravity": "1.5 (surface), 1 standard (Cloud City)",
    "surface_water": 0,
    "population": 6000000,
    "image_path": "/images/planets/Bespin.jpg"
  },
  {
    "id": 7,
    "name": "Endor",
    "rotation_period": 18,
    "orbital_period": 402,
    "diameter": 4900,
    "gravity": "0.85 standard",
    "surface_water": 8,
    "population": 30000000,
    "image_path": "/images/planets/Endor.jpg"
  },
  {
    "id": 8,
    "name": "Naboo",
    "rotation_period": 26,
    "orbital_period": 312,
    "diameter": 12120,
    "gravity": "1 standard",
    "surface_water": 12,
    "population": 4500000000,
    "image_path": "/images/planets/Naboo.jpg"
  },
  {
    "id": 9,
    "name": "Coruscant",
    "rotation_period": 24,
    "orbital_period": 368,
    "diameter": 12240,
    "gravity": "1 standard",
    "surface_water": null,
    "population": 1000000000000,
    "image_path": "/images/planets/Coruscant.jpg"
  },
  {
    "id": 10,
    "name": "Kamino",
    "rotation_period": 27,
    "orbital_period": 463,
    "diameter": 19720,
    "gravity": "1 standard",
    "surface_water": 100,
    "population": 1000000000,
    "image_path": "/images/planets/Kamino.jpg"
  },
  {
    "id": 11,
    "name": "Geonosis",
    "rotation_period": 30,
    "orbital_period": 256,
    "diameter": 11370,
    "gravity": "0.9 standard",
    "surface_water": 5,
    "population": 100000000000,
    "image_path": "/images/planets/Geonosis.jpg"
  },
  {
    "id": 12,
    "name": "Utapau",
    "rotation_period": 27,
    "orbital_period": 351,
    "diameter": 12900,
    "gravity": "1 standard",
    "surface_water": 0.9,
    "population": 95000000,
    "image_path": "/images/planets/Utapau.jpg"
  },
  {
    "id": 13,
    "name": "Mustafar",
    "rotation_period": 36,
    "orbital_period": 412,
    "diameter": 4200,
    "gravity": "1 standard",
    "surface_water": 0,
    "population": 20000,
    "image_path": "/images/planets/Mustafar.jpg"
  },
  {
    "id": 14,
    "name": "Kashyyyk",
    "rotation_period": 26,
    "orbital_period": 381,
    "diameter": 12765,
    "gravity": "1 standard",
    "surface_water": 60,
    "population": 45000000,
    "image_path": "/images/planets/Kashyyyk.jpg"
  },
  {
    "id": 15,
    "name": "Polis Massa",
    "rotation_period": 24,
    "orbital_period": 590,
    "diameter": 0,
    "gravity": "0.56 standard",
    "surface_water": 0,
    "population": 1000000,
    "image_path": "/images/planets/Polis Massa.jpg"
  },
  {
    "id": 16,
    "name": "Mygeeto",
    "rotation_period": 12,
    "orbital_period": 167,
    "diameter": 10088,
    "gravity": "1 standard",
    "surface_water": null,
    "population": 19000000,
    "image_path": "/images/planets/Mygeeto.jpg"
  },
  {
    "id": 17,
    "name": "Felucia",
    "rotation_period": 34,
    "orbital_period": 231,
    "diameter": 9100,
    "gravity": "0.75 standard",
    "surface_water": null,
    "population": 8500000,
    "image_path": "/images/planets/Felucia.jpg"
  },
  {
    "id": 18,
    "name": "Cato Neimoidia",
    "rotation_period": 25,
    "orbital_period": 278,
    "diameter": 0,
    "gravity": "1 standard",
    "surface_water": null,
    "population": 10000000,
    "image_path": "/images/planets/Cato Neimoidia.jpg"
  },
  {
    "id": 19,
    "name": "Saleucami",
    "rotation_period": 26,
    "orbital_period": 392,
    "diameter": 14920,
    "gravity": null,
    "surface_water": null,
    "population": 1400000000,
    "image_path": "/images/planets/Saleucami.jpg"
  },
  {
    "id": 20,
    "name": "Stewjon",
    "rotation_period": null,
    "orbital_period": null,
    "diameter": 0,
    "gravity": "1 standard",
    "surface_water": null,
    "population": null,
    "image_path": "/images/planets/Stewjon.jpg"
  },
  {
    "id": 21,
    "name": "Eriadu",
    "rotation_period": 24,
    "orbital_period": 360,
    "diameter": 13490,
    "gravity": "1 standard",
    "surface_water": null,
    "population": 22000000000,
    "image_path": "/images/planets/Eriadu.jpg"
  },
  {
    "id": 22,
    "name": "Corellia",
    "rotation_period": 25,
    "orbital_period": 329,
    "diameter": 11000,
    "gravity": "1 standard",
    "surface_water": 70,
    "population": 3000000000,
    "image_path": "/images/planets/Corellia.jpg"
  },
  {
    "id": 23,
    "name": "Rodia",
    "rotation_period": 29,
    "orbital_period": 305,
    "diameter": 7549,
    "gravity": "1 standard",
    "surface_water": 60,
    "population": 1300000000,
    "image_path": "/images/planets/Rodia.jpg"
  },
  {
    "id": 24,
    "name": "Nal Hutta",
    "rotation_period": 87,
    "orbital_period": 413,
    "diameter": 12150,
    "gravity": "1 standard",
    "surface_water": null,
    "population": 7000000000,
    "image_path": "/images/planets/Nal Hutta.png"
  },
  {
    "id": 25,
    "name": "Dantooine",
    "rotation_period": 25,
    "orbital_period": 378,
    "diameter": 9830,
    "gravity": "1 standard",
    "surface_water": null,
    "population": 1000,
    "image_path": "/images/planets/Dantooine.jpg"
  },
  {
    "id": 26,
    "name": "Bestine IV",
    "rotation_period": 26,
    "orbital_period": 680,
    "diameter": 6400,
    "gravity": null,
    "surface_water": 98,
    "population": 62000000,
    "image_path": "/images/planets/Bestine IV.png"
  },
  {
    "id": 27,
    "name": "Ord Mantell",
    "rotation_period": 26,
    "orbital_period": 334,
    "diameter": 14050,
    "gravity": "1 standard",
    "surface_water": 10,
    "population": 4000000000,
    "image_path": "/images/planets/Ord Mantell.png"
  },
  {
    "id": 28,
    "name": "Trandosha",
    "rotation_period": 25,
    "orbital_period": 371,
    "diameter": 0,
    "gravity": "0.62 standard",
    "surface_water": null,
    "population": 42000000,
    "image_path": "/images/planets/Trandosha.png"
  },
  {
    "id": 29,
    "name": "Socorro",
    "rotation_period": 20,
    "orbital_period": 326,
    "diameter": 0,
    "gravity": "1 standard",
    "surface_water": null,
    "population": 300000000,
    "image_path": "/images/planets/Socorro.png"
  },
  {
    "id": 30,
    "name": "Mon Cala",
    "rotation_period": 21,
    "orbital_period": 398,
    "diameter": 11030,
    "gravity": "1",
    "surface_water": 100,
    "population": 27000000000,
    "image_path": "/images/planets/Mon Cala.png"
  },
  {
    "id": 31,
    "name": "Chandrila",
    "rotation_period": 20,
    "orbital_period": 368,
    "diameter": 13500,
    "gravity": "1",
    "surface_water": 40,
    "population": 1200000000,
    "image_path": "/images/planets/Chandrila.png"
  },
  {
    "id": 32,
    "name": "Sullust",
    "rotation_period": 20,
    "orbital_period": 263,
    "diameter": 12780,
    "gravity": "1",
    "surface_water": 5,
    "population": 18500000000,
    "image_path": "/images/planets/Sullust.png"
  },
  {
    "id": 33,
    "name": "Toydaria",
    "rotation_period": 21,
    "orbital_period": 184,
    "diameter": 7900,
    "gravity": "1",
    "surface_water": null,
    "population": 11000000,
    "image_path": "/images/planets/Toydaria.jpg"
  },
  {
    "id": 34,
    "name": "Malastare",
    "rotation_period": 26,
    "orbital_period": 201,
    "diameter": 18880,
    "gravity": "1.56",
    "surface_water": null,
    "population": 2000000000,
    "image_path": "/images/planets/Malastare.jpg"
  },
  {
    "id": 35,
    "name": "Dathomir",
    "rotation_period": 24,
    "orbital_period": 491,
    "diameter": 10480,
    "gravity": "0.9",
    "surface_water": null,
    "population": 5200,
    "image_path": "/images/planets/Dathomir.jpg"
  },
  {
    "id": 36,
    "name": "Ryloth",
    "rotation_period": 30,
    "orbital_period": 305,
    "diameter": 10600,
    "gravity": "1",
    "surface_water": 5,
    "population": 1500000000,
    "image_path": "/images/planets/Ryloth.png"
  },
  {
    "id": 37,
    "name": "Aleen Minor",
    "rotation_period": null,
    "orbital_period": null,
    "diameter": null,
    "gravity": null,
    "surface_water": null,
    "population": null,
    "image_path": "/images/planets/Aleen Minor.jpg"
  },
  {
    "id": 38,
    "name": "Vulpter",
    "rotation_period": 22,
    "orbital_period": 391,
    "diameter": 14900,
    "gravity": "1",
    "surface_water": null,
    "population": 421000000,
    "image_path": "/images/planets/Vulpter.jpg"
  },
  {
    "id": 39,
    "name": "Troiken",
    "rotation_period": null,
    "orbital_period": null,
    "diameter": null,
    "gravity": null,
    "surface_water": null,
    "population": null,
    "image_path": "/images/planets/Troiken.jpg"
  },
  {
    "id": 40,
    "name": "Tund",
    "rotation_period": 48,
    "orbital_period": 1770,
    "diameter": 12190,
    "gravity": null,
    "surface_water": null,
    "population": 0,
    "image_path": "/images/planets/Tund.jpg"
  },
  {
    "id": 41,
    "name": "Haruun Kal",
    "rotation_period": 25,
    "orbital_period": 383,
    "diameter": 10120,
    "gravity": "0.98",
    "surface_water": null,
    "population": 705300,
    "image_path": "/images/planets/Haruun Kal.jpg"
  },
  {
    "id": 42,
    "name": "Cerea",
    "rotation_period": 27,
    "orbital_period": 386,
    "diameter": null,
    "gravity": "1",
    "surface_water": 20,
    "population": 450000000,
    "image_path": "/images/planets/Cerea.png"
  },
  {
    "id": 43,
    "name": "Glee Anselm",
    "rotation_period": 33,
    "orbital_period": 206,
    "diameter": 15600,
    "gravity": "1",
    "surface_water": 80,
    "population": 500000000,
    "image_path": "/images/planets/Glee Anselm.jpg"
  },
  {
    "id": 44,
    "name": "Iridonia",
    "rotation_period": 29,
    "orbital_period": 413,
    "diameter": null,
    "gravity": null,
    "surface_water": null,
    "population": null,
    "image_path": "/images/planets/Iridonia.jpg"
  },
  {
    "id": 45,
    "name": "Tholoth",
    "rotation_period": null,
    "orbital_period": null,
    "diameter": null,
    "gravity": null,
    "surface_water": null,
    "population": null,
    "image_path": "/images/planets/Tholoth.png"
  },
  {
    "id": 46,
    "name": "Iktotch",
    "rotation_period": 22,
    "orbital_period": 481,
    "diameter": null,
    "gravity": "1",
    "surface_water": null,
    "population": null,
    "image_path": "/images/planets/Iktotch.png"
  },
  {
    "id": 47,
    "name": "Quermia",
    "rotation_period": null,
    "orbital_period": null,
    "diameter": null,
    "gravity": null,
    "surface_water": null,
    "population": null,
    "image_path": "/images/planets/Quermia.jpg"
  },
  {
    "id": 48,
    "name": "Dorin",
    "rotation_period": 22,
    "orbital_period": 409,
    "diameter": 13400,
    "gravity": "1",
    "surface_water": null,
    "population": null,
    "image_path": "/images/planets/Dorin.png"
  },
  {
    "id": 49,
    "name": "Champala",
    "rotation_period": 27,
    "orbital_period": 318,
    "diameter": null,
    "gravity": "1",
    "surface_water": null,
    "population": 3500000000,
    "image_path": "/images/planets/Champala.jpg"
  },
  {
    "id": 50,
    "name": "Mirial",
    "rotation_period": null,
    "orbital_period": null,
    "diameter": null,
    "gravity": null,
    "surface_water": null,
    "population": null,
    "image_path": "/images/planets/Mirial.jpg"
  },
  {
    "id": 51,
    "name": "Serenno",
    "rotation_period": null,
    "orbital_period": null,
    "diameter": null,
    "gravity": null,
    "surface_water": null,
    "population": null,
    "image_path": "/images/planets/Serenno.png"
  },
  {
    "id": 52,
    "name": "Concord Dawn",
    "rotation_period": null,
    "orbital_period": null,
    "diameter": null,
    "gravity": null,
    "surface_water": null,
    "population": null,
    "image_path": "/images/planets/Concord Dawn.jpg"
  },
  {
    "id": 53,
    "name": "Zolan",
    "rotation_period": null,
    "orbital_period": null,
    "diameter": null,
    "gravity": null,
    "surface_water": null,
    "population": null,
    "image_path": "/images/planets/Zolan.jpg"
  },
  {
    "id": 54,
    "name": "Ojom",
    "rotation_period": null,
    "orbital_period": null,
    "diameter": null,
    "gravity": null,
    "surface_water": 100,
    "population": 500000000,
    "image_path": "/images/planets/Ojom.jpg"
  },
  {
    "id": 55,
    "name": "Skako",
    "rotation_period": 27,
    "orbital_period": 384,
    "diameter": null,
    "gravity": "1",
    "surface_water": null,
    "population": 500000000000,
    "image_path": "/images/planets/Skako.png"
  },
  {
    "id": 56,
    "name": "Muunilinst",
    "rotation_period": 28,
    "orbital_period": 412,
    "diameter": 13800,
    "gravity": "1",
    "surface_water": 25,
    "population": 5000000000,
    "image_path": "/images/planets/Muunilinst.jpg"
  },
  {
    "id": 57,
    "name": "Shili",
    "rotation_period": null,
    "orbital_period": null,
    "diameter": null,
    "gravity": "1",
    "surface_water": null,
    "population": null,
    "image_path": "/images/planets/Shili.jpg"
  },
  {
    "id": 58,
    "name": "Kalee",
    "rotation_period": 23,
    "orbital_period": 378,
    "diameter": 13850,
    "gravity": "1",
    "surface_water": null,
    "population": 4000000000,
    "image_path": "/images/planets/Kalee.jpg"
  },
  {
    "id": 59,
    "name": "Umbara",
    "rotation_period": null,
    "orbital_period": null,
    "diameter": null,
    "gravity": null,
    "surface_water": null,
    "population": null,
    "image_path": "/images/planets/Umbara.png"
  }
]
