[
  {
    "id": 1,
    "name": "Human",
    "classification_id": 1,
    "designation_id": 1,
    "average_height": 180,
    "average_lifespan": 120,
    "language_id": 1,
    "homeworld_id": 9,
    "eye_colors": ["brown", "blue", "green", "hazel", "grey", "amber"],
    "hair_colors": ["blonde", "brown", "black", "red"],
    "skin_colors": ["caucasian", "black", "asian", "hispanic"],
    "image_path": "/images/species/Human.jpg"
  },
  {
    "id": 2,
    "name": "Droid",
    "classification_id": 2,
    "designation_id": 1,
    "average_height": null,
    "average_lifespan": null,
    "language_id": null,
    "homeworld_id": null,
    "eye_colors": [],
    "hair_colors": [],
    "skin_colors": [],
    "image_path": "/images/species/Droid.png"
  },
  {
    "id": 3,
    "name": "Wookie",
    "classification_id": 1,
    "designation_id": 1,
    "average_height": 210,
    "average_lifespan": 400,
    "language_id": 2,
    "homeworld_id": 14,
    "eye_colors": ["blue", "green", "yellow", "brown", "golden", "red"],
    "hair_colors": ["black", "brown"],
    "skin_colors": ["gray"],
    "image_path": "/images/species/Wookie.jpg"
  },
  {
    "id": 4,
    "name": "Rodian",
    "classification_id": 3,
    "designation_id": 2,
    "average_height": 170,
    "average_lifespan": null,
    "language_id": 3,
    "homeworld_id": 23,
    "eye_colors": ["black"],
    "hair_colors": [],
    "skin_colors": ["green", "blue"],
    "image_path": "/images/species/Rodian.jpg"
  },
  {
    "id": 5,
    "name": "Hutt",
    "classification_id": 4,
    "designation_id": 1,
    "average_height": 300,
    "average_lifespan": 1000,
    "language_id": 4,
    "homeworld_id": 24,
    "eye_colors": ["yellow", "red"],
    "hair_colors": [],
    "skin_colors": ["green", "brown", "tan"],
    "image_path": "/images/species/Hutt.jpg"
  },
  {
    "id": 6,
    "name": "Yoda's species",
    "classification_id": 1,
    "designation_id": 1,
    "average_height": 66,
    "average_lifespan": 900,
    "language_id": 5,
    "homeworld_id": null,
    "eye_colors": ["brown", "green", "yellow"],
    "hair_colors": ["brown", "white"],
    "skin_colors": ["green", "yellow"],
    "image_path": "/images/species/Yoda's species.jpg"
  },
  {
    "id": 7,
    "name": "Trandoshan",
    "classification_id": 5,
    "designation_id": 1,
    "average_height": 200,
    "average_lifespan": null,
    "language_id": 6,
    "homeworld_id": 28,
    "eye_colors": ["yellow", "orange"],
    "hair_colors": ["none"],
    "skin_colors": ["brown", "green"],
    "image_path": "/images/species/Trandoshan.jpg"
  },
  {
    "id": 8,
    "name": "Mon Calamari",
    "classification_id": 6,
    "designation_id": 1,
    "average_height": 160,
    "average_lifespan": null,
    "language_id": 7,
    "homeworld_id": 30,
    "eye_colors": ["yellow"],
    "hair_colors": ["none"],
    "skin_colors": ["red", "blue", "brown", "magenta"],
    "image_path": "/images/species/Mon Calamari.jpg"
  },
  {
    "id": 9,
    "name": "Ewok",
    "classification_id": 1,
    "designation_id": 1,
    "average_height": 100,
    "average_lifespan": null,
    "language_id": 8,
    "homeworld_id": 7,
    "eye_colors": ["orange", "brown"],
    "hair_colors": ["white", "brown", "black"],
    "skin_colors": ["brown"],
    "image_path": "/images/species/Ewok.jpg"
  },
  {
    "id": 10,
    "name": "Sullustan",
    "classification_id": 1,
    "designation_id": 1,
    "average_height": 180,
    "average_lifespan": null,
    "language_id": 9,
    "homeworld_id": 32,
    "eye_colors": ["black"],
    "hair_colors": ["none"],
    "skin_colors": ["pale"],
    "image_path": "/images/species/Sullustan.jpg"
  },
  {
    "id": 11,
    "name": "Neimodian",
    "classification_id": null,
    "designation_id": 1,
    "average_height": 180,
    "average_lifespan": null,
    "language_id": 10,
    "homeworld_id": 18,
    "eye_colors": ["red", "pink"],
    "hair_colors": ["none"],
    "skin_colors": ["grey", "green"],
    "image_path": "/images/species/Neimodian.jpg"
  },
  {
    "id": 12,
    "name": "Gungan",
    "classification_id": 6,
    "designation_id": 1,
    "average_height": 190,
    "average_lifespan": null,
    "language_id": 11,
    "homeworld_id": 8,
    "eye_colors": ["orange"],
    "hair_colors": ["none"],
    "skin_colors": ["brown", "green"],
    "image_path": "/images/species/Gungan.jpg"
  },
  {
    "id": 13,
    "name": "Toydarian",
    "classification_id": 1,
    "designation_id": 1,
    "average_height": 120,
    "average_lifespan": 91,
    "language_id": 12,
    "homeworld_id": 33,
    "eye_colors": ["yellow"],
    "hair_colors": ["none"],
    "skin_colors": ["blue", "green", "grey"],
    "image_path": "/images/species/Toydarian.jpg"
  },
  {
    "id": 14,
    "name": "Dug",
    "classification_id": 1,
    "designation_id": 1,
    "average_height": 100,
    "average_lifespan": null,
    "language_id": 13,
    "homeworld_id": 34,
    "eye_colors": ["yellow", "blue"],
    "hair_colors": ["none"],
    "skin_colors": ["brown", "purple", "grey", "red"],
    "image_path": "/images/species/Dug.jpg"
  },
  {
    "id": 15,
    "name": "Twi'lek",
    "classification_id": 7,
    "designation_id": 1,
    "average_height": 200,
    "average_lifespan": null,
    "language_id": 14,
    "homeworld_id": 36,
    "eye_colors": ["blue", "brown", "orange", "pink"],
    "hair_colors": ["none"],
    "skin_colors": [
      "orange",
      "yellow",
      "blue",
      "green",
      "pink",
      "purple",
      "tan"
    ],
    "image_path": "/images/species/Twi'lek.jpg"
  },
  {
    "id": 16,
    "name": "Aleena",
    "classification_id": 5,
    "designation_id": 1,
    "average_height": 80,
    "average_lifespan": 79,
    "language_id": 15,
    "homeworld_id": 37,
    "eye_colors": [],
    "hair_colors": ["none"],
    "skin_colors": ["blue", "gray"],
    "image_path": "/images/species/Aleena.png"
  },
  {
    "id": 17,
    "name": "Vulptereen",
    "classification_id": null,
    "designation_id": 1,
    "average_height": 100,
    "average_lifespan": null,
    "language_id": 16,
    "homeworld_id": 38,
    "eye_colors": ["yellow"],
    "hair_colors": ["none"],
    "skin_colors": ["grey"],
    "image_path": "/images/species/Vulptereen.jpg"
  },
  {
    "id": 18,
    "name": "Xexto",
    "classification_id": null,
    "designation_id": 1,
    "average_height": 125,
    "average_lifespan": null,
    "language_id": 17,
    "homeworld_id": 39,
    "eye_colors": ["black"],
    "hair_colors": ["none"],
    "skin_colors": ["grey", "yellow", "purple"],
    "image_path": "/images/species/Xexto.jpg"
  },
  {
    "id": 19,
    "name": "Toong",
    "classification_id": null,
    "designation_id": 1,
    "average_height": 200,
    "average_lifespan": null,
    "language_id": 18,
    "homeworld_id": 40,
    "eye_colors": ["orange"],
    "hair_colors": ["none"],
    "skin_colors": ["grey", "green", "yellow"],
    "image_path": "/images/species/Toong.jpg"
  },
  {
    "id": 20,
    "name": "Cerean",
    "classification_id": 1,
    "designation_id": 1,
    "average_height": 200,
    "average_lifespan": null,
    "language_id": 19,
    "homeworld_id": 42,
    "eye_colors": ["hazel"],
    "hair_colors": ["red", "blond", "black", "white"],
    "skin_colors": ["pale pink"],
    "image_path": "/images/species/Cerean.jpg"
  },
  {
    "id": 21,
    "name": "Nautolan",
    "classification_id": 6,
    "designation_id": 1,
    "average_height": 180,
    "average_lifespan": 70,
    "language_id": 20,
    "homeworld_id": 43,
    "eye_colors": ["black"],
    "hair_colors": ["none"],
    "skin_colors": ["green", "blue", "brown", "red"],
    "image_path": "/images/species/Nautolan.jpg"
  },
  {
    "id": 22,
    "name": "Zabrak",
    "classification_id": 1,
    "designation_id": 1,
    "average_height": 180,
    "average_lifespan": null,
    "language_id": 21,
    "homeworld_id": 44,
    "eye_colors": ["brown", "orange"],
    "hair_colors": ["black"],
    "skin_colors": ["pale", "brown", "red", "orange", "yellow"],
    "image_path": "/images/species/Zabrak.jpg"
  },
  {
    "id": 23,
    "name": "Tholothian",
    "classification_id": 1,
    "designation_id": 1,
    "average_height": null,
    "average_lifespan": null,
    "language_id": null,
    "homeworld_id": 45,
    "eye_colors": ["blue", "indigo"],
    "hair_colors": [],
    "skin_colors": ["dark"],
    "image_path": "/images/species/Tholothian.jpg"
  },
  {
    "id": 24,
    "name": "Iktotchi",
    "classification_id": null,
    "designation_id": 1,
    "average_height": 180,
    "average_lifespan": null,
    "language_id": 22,
    "homeworld_id": 46,
    "eye_colors": ["orange"],
    "hair_colors": ["none"],
    "skin_colors": ["pink"],
    "image_path": "/images/species/Iktotchi.jpg"
  },
  {
    "id": 25,
    "name": "Quermian",
    "classification_id": 1,
    "designation_id": 1,
    "average_height": 240,
    "average_lifespan": 86,
    "language_id": 23,
    "homeworld_id": 47,
    "eye_colors": ["yellow"],
    "hair_colors": ["none"],
    "skin_colors": ["white"],
    "image_path": "/images/species/Quermian.jpeg"
  },
  {
    "id": 26,
    "name": "Kel Dor",
    "classification_id": null,
    "designation_id": 1,
    "average_height": 180,
    "average_lifespan": 70,
    "language_id": 24,
    "homeworld_id": 48,
    "eye_colors": ["black", "silver"],
    "hair_colors": ["none"],
    "skin_colors": ["peach", "orange", "red"],
    "image_path": "/images/species/Kel Dor.jpg"
  },
  {
    "id": 27,
    "name": "Chagrian",
    "classification_id": 6,
    "designation_id": 1,
    "average_height": 190,
    "average_lifespan": null,
    "language_id": 25,
    "homeworld_id": 49,
    "eye_colors": ["blue"],
    "hair_colors": ["none"],
    "skin_colors": ["blue"],
    "image_path": "/images/species/Chagrian.png"
  },
  {
    "id": 28,
    "name": "Geonosian",
    "classification_id": 8,
    "designation_id": 1,
    "average_height": 178,
    "average_lifespan": null,
    "language_id": 26,
    "homeworld_id": 11,
    "eye_colors": ["green", "hazel"],
    "hair_colors": ["none"],
    "skin_colors": ["green", "brown"],
    "image_path": "/images/species/Geonosian.jpg"
  },
  {
    "id": 29,
    "name": "Mirialan",
    "classification_id": 1,
    "designation_id": 1,
    "average_height": 180,
    "average_lifespan": null,
    "language_id": 27,
    "homeworld_id": 50,
    "eye_colors": ["blue", "green", "red", "yellow", "brown", "orange"],
    "hair_colors": ["black", "brown"],
    "skin_colors": ["yellow", "green"],
    "image_path": "/images/species/Mirialan.jpeg"
  },
  {
    "id": 30,
    "name": "Clawdite",
    "classification_id": 9,
    "designation_id": 1,
    "average_height": 180,
    "average_lifespan": 70,
    "language_id": 28,
    "homeworld_id": 53,
    "eye_colors": ["yellow"],
    "hair_colors": ["none"],
    "skin_colors": ["green", "yellow"],
    "image_path": "/images/species/Clawdite.jpg"
  },
  {
    "id": 31,
    "name": "Besalisk",
    "classification_id": 6,
    "designation_id": 1,
    "average_height": 178,
    "average_lifespan": 75,
    "language_id": 29,
    "homeworld_id": 54,
    "eye_colors": ["yellow"],
    "hair_colors": ["none"],
    "skin_colors": ["brown"],
    "image_path": "/images/species/Besalisk.jpg"
  },
  {
    "id": 32,
    "name": "Kaminoan",
    "classification_id": 6,
    "designation_id": 1,
    "average_height": 220,
    "average_lifespan": 80,
    "language_id": 30,
    "homeworld_id": 10,
    "eye_colors": ["black"],
    "hair_colors": ["none"],
    "skin_colors": ["grey", "blue"],
    "image_path": "/images/species/Kaminoan.png"
  },
  {
    "id": 33,
    "name": "Skakoan",
    "classification_id": 1,
    "designation_id": 1,
    "average_height": null,
    "average_lifespan": null,
    "language_id": 31,
    "homeworld_id": 55,
    "eye_colors": [],
    "hair_colors": ["none"],
    "skin_colors": ["grey", "green"],
    "image_path": "/images/species/Skakoan.jpg"
  },
  {
    "id": 34,
    "name": "Muun",
    "classification_id": 1,
    "designation_id": 1,
    "average_height": 190,
    "average_lifespan": 100,
    "language_id": 32,
    "homeworld_id": 56,
    "eye_colors": ["black"],
    "hair_colors": ["none"],
    "skin_colors": ["grey", "white"],
    "image_path": "/images/species/Muun.jpg"
  },
  {
    "id": 35,
    "name": "Togruta",
    "classification_id": 1,
    "designation_id": 1,
    "average_height": 180,
    "average_lifespan": 94,
    "language_id": 33,
    "homeworld_id": 57,
    "eye_colors": ["red", "orange", "yellow", "green", "blue", "black"],
    "hair_colors": ["none"],
    "skin_colors": ["red", "white", "orange", "yellow", "green", "blue"],
    "image_path": "/images/species/Togruta.jpg"
  },
  {
    "id": 36,
    "name": "Kaleesh",
    "classification_id": 5,
    "designation_id": 1,
    "average_height": 170,
    "average_lifespan": 80,
    "language_id": 34,
    "homeworld_id": 58,
    "eye_colors": ["yellow"],
    "hair_colors": ["none"],
    "skin_colors": ["brown", "orange", "tan"],
    "image_path": "/images/species/Kaleesh.jpg"
  },
  {
    "id": 37,
    "name": "Pau'an",
    "classification_id": 1,
    "designation_id": 1,
    "average_height": 190,
    "average_lifespan": 700,
    "language_id": 35,
    "homeworld_id": 12,
    "eye_colors": ["black"],
    "hair_colors": ["none"],
    "skin_colors": ["grey"],
    "image_path": "/images/species/Pau'an.jpg"
  }
]
