[
  { "id": 1, "terrain_name": "desert" },
  { "id": 2, "terrain_name": "grasslands" },
  { "id": 3, "terrain_name": "mountains" },
  { "id": 4, "terrain_name": "jungle" },
  { "id": 5, "terrain_name": "rainforests" },
  { "id": 6, "terrain_name": "tundra" },
  { "id": 7, "terrain_name": "ice caves" },
  { "id": 8, "terrain_name": "mountain ranges" },
  { "id": 9, "terrain_name": "swamp" },
  { "id": 10, "terrain_name": "jungles" },
  { "id": 11, "terrain_name": "gas giant" },
  { "id": 12, "terrain_name": "forests" },
  { "id": 13, "terrain_name": "lakes" },
  { "id": 14, "terrain_name": "grassy hills" },
  { "id": 15, "terrain_name": "swamps" },
  { "id": 16, "terrain_name": "cityscape" },
  { "id": 17, "terrain_name": "ocean" },
  { "id": 18, "terrain_name": "rock" },
  { "id": 19, "terrain_name": "mountain" },
  { "id": 20, "terrain_name": "barren" },
  { "id": 21, "terrain_name": "scrublands" },
  { "id": 22, "terrain_name": "savanna" },
  { "id": 23, "terrain_name": "canyons" },
  { "id": 24, "terrain_name": "sinkholes" },
  { "id": 25, "terrain_name": "volcanoes" },
  { "id": 26, "terrain_name": "lava rivers" },
  { "id": 27, "terrain_name": "caves" },
  { "id": 28, "terrain_name": "rivers" },
  { "id": 29, "terrain_name": "airless asteroid" },
  { "id": 30, "terrain_name": "glaciers" },
  { "id": 31, "terrain_name": "ice canyons" },
  { "id": 32, "terrain_name": "fungus forests" },
  { "id": 33, "terrain_name": "fields" },
  { "id": 34, "terrain_name": "rock arches" },
  { "id": 35, "terrain_name": "grass" },
  { "id": 36, "terrain_name": "plains" },
  { "id": 37, "terrain_name": "urban" },
  { "id": 38, "terrain_name": "hills" },
  { "id": 39, "terrain_name": "oceans" },
  { "id": 40, "terrain_name": "bogs" },
  { "id": 41, "terrain_name": "savannas" },
  { "id": 42, "terrain_name": "rocky islands" },
  { "id": 43, "terrain_name": "seas" },
  { "id": 44, "terrain_name": "mesas" },
  { "id": 45, "terrain_name": "deserts" },
  { "id": 46, "terrain_name": "reefs" },
  { "id": 47, "terrain_name": "islands" },
  { "id": 48, "terrain_name": "rocky deserts" },
  { "id": 49, "terrain_name": "valleys" },
  { "id": 50, "terrain_name": "ash" },
  { "id": 51, "terrain_name": "toxic cloudsea" },
  { "id": 52, "terrain_name": "plateaus" },
  { "id": 53, "terrain_name": "verdant" },
  { "id": 54, "terrain_name": "rocky canyons" },
  { "id": 55, "terrain_name": "acid pools" },
  { "id": 56, "terrain_name": "rocky" },
  { "id": 57, "terrain_name": "vines" },
  { "id": 58, "terrain_name": "cities" },
  { "id": 59, "terrain_name": "savannahs" },
  { "id": 60, "terrain_name": "cliffs" }
]
